{
    "objects":[
        {
            "title": "Projects"
            
        },
        {
            "title": "Skills"
            
        },
        {
            "title": "Contacts"
        
        },
        {
            "title": "About me"
            
        }
    ]
    
}